<?xml version="1.0" encoding="UTF-8" standalone="no"?>
<!DOCTYPE svg PUBLIC "-//W3C//DTD SVG 1.1//EN" "http://www.w3.org/Graphics/SVG/1.1/DTD/svg11.dtd">
<svg width="100%" height="100%" viewBox="0 0 130 130" version="1.1" xmlns="http://www.w3.org/2000/svg" xmlns:xlink="http://www.w3.org/1999/xlink" xml:space="preserve" xmlns:serif="http://www.serif.com/" style="fill-rule:evenodd;clip-rule:evenodd;stroke-linejoin:round;stroke-miterlimit:1.41421;">
    <rect x="0" y="0" width="130" height="130" style="fill:white;"/>
    <g transform="matrix(0.0694215,0,0,0.0694215,-1.84704,-3.87183)">
        <path d="M1467.08,1496.25L458.749,487.916L1467.08,487.916L1467.08,1496.25ZM1387.72,567.275L650.34,567.275L1387.72,1304.66L1387.72,567.275Z" style="fill:url(#_Linear1);"/>
        <path d="M1127.87,1496.25L458.749,1496.25L458.749,827.125L1127.87,1496.25ZM538.296,1416.7L935.831,1416.7L538.296,1019.17L538.296,1416.7Z" style="fill:url(#_Linear2);"/>
    </g>
    <defs>
        <linearGradient id="_Linear1" x1="0" y1="0" x2="1" y2="0" gradientUnits="userSpaceOnUse" gradientTransform="matrix(1005.25,-1002.25,1002.25,1005.25,458.749,1496.25)"><stop offset="0" style="stop-color:rgb(148,89,240);stop-opacity:1"/><stop offset="1" style="stop-color:rgb(32,230,206);stop-opacity:1"/></linearGradient>
        <linearGradient id="_Linear2" x1="0" y1="0" x2="1" y2="0" gradientUnits="userSpaceOnUse" gradientTransform="matrix(1008.33,-1008.33,1008.33,1008.33,458.749,1496.25)"><stop offset="0" style="stop-color:rgb(148,89,240);stop-opacity:1"/><stop offset="1" style="stop-color:rgb(32,230,206);stop-opacity:1"/></linearGradient>
    </defs>
</svg>
